﻿{
  "MetaData": {
    "Schema": {
      "ManagerName": "SourceCodeSchemaManager",
      "UId": "d7520284-8568-4741-9310-29c8f857b5a1",
      "A2": "UsrRealtyEvents",
      "A5": "f096c9c2-7b71-4b01-a006-297530091a17",
      "B1": [],
      "B2": [
        {
          "UId": "69162c1c-6e49-a1d5-a62a-ea2a36bc2c8b",
          "A2": "ValueIsTooBig",
          "A3": "d7520284-8568-4741-9310-29c8f857b5a1",
          "A4": "d7520284-8568-4741-9310-29c8f857b5a1",
          "A5": "f096c9c2-7b71-4b01-a006-297530091a17"
        }
      ],
      "B3": [],
      "B6": "71e132a8-61d6-4026-81b0-a45cc9ab43dd",
      "B8": "8.1.0.6827",
      "HD1": "50e3acc0-26fc-4237-a095-849a1d534bd3"
    }
  }
}