﻿{
  "PackageData": [
    {
      "Row": [
        {
          "SchemaColumnUId": "ae0e45ca-c495-4fe7-a39d-3ab7278e1617",
          "Value": "4ff7e360-ad81-46f5-99c3-2ebad166c553"
        },
        {
          "SchemaColumnUId": "49ad8ee2-65a6-4cdd-b8f6-85c2f10a54dc",
          "Value": "Realty (ClassicUI) attachment"
        },
        {
          "SchemaColumnUId": "631e7238-2751-4a21-b6d6-9f1ac0c84f95",
          "Value": "52b6ae89-f2f6-4d1a-a4f7-378d218b08f6"
        },
        {
          "SchemaColumnUId": "8585929c-62ae-4673-ae8d-bb37f87e5144",
          "Value": "0c43958a-a409-47bc-a3cb-9bc32451a45a"
        }
      ]
    }
  ]
}