﻿{
  "Descriptor": {
    "UId": "0488b337-2ab6-494f-a402-54c32ceee8ee",
    "Name": "UsrRealtyFreedomUIBusinessRule",
    "ModifiedOnUtc": "\/Date(1702638466000)\/",
    "ManagerName": "AddonSchemaManager",
    "Caption": "Realty FreedomUI (Business rules)",
    "DependsOn": []
  }
}