﻿{
  "Descriptor": {
    "UId": "c76f28cf-415d-40b4-9884-cbb3c74a6f9f",
    "Name": "UsrRealtyOfferTypeFreedomUI",
    "ModifiedOnUtc": "\/Date(1702891154000)\/",
    "Parent": {
      "UId": "11ab4bcb-9b23-4b6d-9c86-520fae925d75",
      "Name": "BaseLookup"
    },
    "ManagerName": "EntitySchemaManager",
    "Caption": "Realty Offer Type (FreedomUI)",
    "DependsOn": []
  }
}