﻿{
  "SqlScript": {
    "UId": "ce44d3c5-2884-5f17-8ec1-6245316f283d",
    "Name": "UsrCreateContactAgeSQL",
    "DBEngineType": 0,
    "InstallType": 0,
    "ModifiedOnUtc": "\/Date(1702463553000)\/",
    "BackwardCompatibilityConfirmed": false,
    "DependsOn": []
  }
}